…
marginal # print table
```

Marginal Significance: You described 0 effects with terms related to
‘marginally significant’.

Let’s check how many are in the full set.

``` r
marginal_ps <- module_run(psychsci, "marginal")

marginal_ps$table # print table
```

    #> # A tibble: 99 × 7
    #>    text                                   section header   div     p     s id   
    #>    <chr>                                  <chr>   <chr>  <dbl> <dbl> <int> <chr>
    #>  1 Although the PTSD group showed a sign… results "Deta…    11     1     4 0956…
    #>  2 A marginally significant negative cor… results "Post…    13     1     4 0956…
    #>  3 When we more closely matched depressi… results "The …    14     3     1 0956…
    #>  4 In that analysis, the group differenc… results "Cond…    15     1     2 0956…
    #>  5 The Congruency × Alignment interactio… results "Resu…     7     2     3 0956…
    #>  6 The twoway interactions between knowl… results "Resu…     6     2     3 0956…
    #>  7 An omnibus 3 (sex ratio) × 2 (partici… results "Resu…    15     2     1 0956…
    #>  8 Further, we observed a marginally sig… fig     ""         3     1     7 0956…
    #>  9 The dagger and asterisks indicate mar… fig     "Fig.…     5     1    13 0956…
    #> 10 Given the unexpected nature of the fi… annex   "Open…    20     1    21 0956…
    #> # ℹ 89 more rows
…
